{
  "project_info": {
    "project_number": "462264280684",
    "firebase_url": "https://uilerning.firebaseio.com",
    "project_id": "uilerning",
    "storage_bucket": "uilerning.appspot.com"
  },
  "client": [
    {
      "client_info": {
        "mobilesdk_app_id": "1:462264280684:android:986a4bf550ecd8d72ada49",
        "android_client_info": {
          "package_name": "com.example.googlemaplerning.evgeny.uilerning"
        }
      },
      "oauth_client": [
        {
          "client_id": "462264280684-nhqvv1smdd74bl1s0lv2pmsdrqj9foob.apps.googleusercontent.com",
          "client_type": 1,
          "android_info": {
            "package_name": "com.example.googlemaplerning.evgeny.uilerning",
            "certificate_hash": "14e7a97154f3014ad6fe3953e1f7fd8596898acd"
          }
        },
        {
          "client_id": "462264280684-he1kvbg1gr33b3vahos4gdf1ekknu8jb.apps.googleusercontent.com",
          "client_type": 3
        }
      ],
      "api_key": [
        {
          "current_key": "AIzaSyAkGCh04rOLBlbNmRZYQ4CWHwHq3CXeSoM"
        }
      ],
      "services": {
        "appinvite_service": {
          "other_platform_oauth_client": [
            {
              "client_id": "462264280684-he1kvbg1gr33b3vahos4gdf1ekknu8jb.apps.googleusercontent.com",
              "client_type": 3
            }
          ]
        }
      }
    }
  ],
  "configuration_version": "1"
}